%YAML 1.1
%TAG !u! tag:unity3d.com,2011:
--- !u!1045 &1
EditorBuildSettings:
  m_ObjectHideFlags: 0
  serializedVersion: 2
  m_Scenes:
  - enabled: 1
    path: Assets/Scenes/MainMenuScene.unity
    guid: b85aaa1b53c07e54ab7a3969bfda5a33
  - enabled: 1
    path: Assets/Scenes/MainSphereScene.unity
    guid: 53b09027e63c0444c82842e4a9420b4d
  - enabled: 1
    path: Assets/Scenes/End Game Screen.unity
    guid: d4cacc7663b676b42b2428e297bfadd2
  - enabled: 0
    path: Assets/Scenes/SphericalDemo.unity
    guid: 89f3dfc5693bba8408d86cdf0ff9d404
  - enabled: 0
    path: Assets/Scenes/MainScene.unity
    guid: ac951e8086e55a44eaf57c92c43cce4c
  - enabled: 0
    path: Assets/Scenes/TestSceneBram.unity
    guid: 84ca68dc3654bc7468daba96b981f782
