# This file uses centimeters as units for non-parametric coordinates.

v 0.000000 2.458582 0.000000
v -0.000000 -2.458582 -0.000000
v 2.458582 0.000000 0.000000
v -2.458582 0.000000 0.000000
v -0.273176 -2.442697 -0.000000
v -0.273176 2.442697 0.000000
v -2.442697 -0.273176 -0.000000
v -0.273176 -0.273176 -0.000000
v -1.365879 -2.042369 -0.000000
v -1.365879 -0.273176 -0.000000
v -2.042369 -1.365879 -0.000000
v -1.365879 -1.365879 -0.000000
v -1.912230 -1.544354 -0.000000
v -1.912230 -1.365879 -0.000000
v -1.544354 -1.912230 -0.000000
v -1.365879 -1.912230 -0.000000
v -1.912230 -0.273176 -0.000000
v -2.315078 -0.819527 -0.000000
v -1.912230 -0.819527 -0.000000
v -1.365879 -0.819527 -0.000000
v -0.273176 -1.365879 -0.000000
v -0.819527 -2.315078 -0.000000
v -0.819527 -1.365879 -0.000000
v -0.819527 -1.912230 -0.000000
v -0.273176 -1.912230 -0.000000
v -0.819527 -0.273176 -0.000000
v -0.819527 -0.819527 -0.000000
v -0.273176 -0.819527 -0.000000
v -2.315078 0.819527 0.000000
v -0.273176 0.819527 0.000000
v -1.365879 0.819527 0.000000
v -1.912230 0.819527 0.000000
v -2.442697 0.273176 0.000000
v -1.912230 0.273176 0.000000
v -1.365879 0.273176 0.000000
v -0.819527 0.819527 0.000000
v -0.819527 0.273176 0.000000
v -0.273176 0.273176 0.000000
v -1.365879 2.042369 0.000000
v -2.042369 1.365879 0.000000
v -1.365879 1.365879 0.000000
v -1.912230 1.365879 0.000000
v -1.912230 1.544354 0.000000
v -1.544354 1.912230 0.000000
v -1.365879 1.912230 0.000000
v -0.273176 1.365879 0.000000
v -0.819527 1.365879 0.000000
v -0.819527 2.315078 0.000000
v -0.819527 1.912230 0.000000
v -0.273176 1.912230 0.000000
v 2.442697 -0.273176 -0.000000
v 0.819527 -2.315078 -0.000000
v 0.819527 -0.273176 -0.000000
v 0.819527 -1.365879 -0.000000
v 0.273176 -2.442697 -0.000000
v 0.273176 -1.365879 -0.000000
v 0.273176 -1.912230 -0.000000
v 0.819527 -1.912230 -0.000000
v 0.273176 -0.273176 -0.000000
v 0.273176 -0.819527 -0.000000
v 0.819527 -0.819527 -0.000000
v 2.042369 -1.365879 -0.000000
v 1.365879 -2.042369 -0.000000
v 1.365879 -1.365879 -0.000000
v 1.365879 -1.912230 -0.000000
v 1.912230 -1.544354 -0.000000
v 1.912230 -1.365879 -0.000000
v 1.544354 -1.912230 -0.000000
v 1.365879 -0.273176 -0.000000
v 1.365879 -0.819527 -0.000000
v 1.912230 -0.273176 -0.000000
v 1.912230 -0.819527 -0.000000
v 2.315078 -0.819527 -0.000000
v 0.819527 2.315078 0.000000
v 0.819527 0.819527 0.000000
v 0.273176 0.819527 0.000000
v 0.273176 0.273176 0.000000
v 0.819527 0.273176 0.000000
v 0.819527 1.365879 0.000000
v 0.273176 1.365879 0.000000
v 0.273176 2.442697 0.000000
v 0.273176 1.912230 0.000000
v 0.819527 1.912230 0.000000
v 2.315078 0.819527 0.000000
v 1.365879 0.819527 0.000000
v 1.365879 0.273176 0.000000
v 1.912230 0.819527 0.000000
v 1.912230 0.273176 0.000000
v 2.442697 0.273176 0.000000
v 1.365879 2.042369 0.000000
v 1.365879 1.365879 0.000000
v 1.365879 1.912230 0.000000
v 2.042369 1.365879 0.000000
v 1.912230 1.365879 0.000000
v 1.912230 1.544354 0.000000
v 1.544354 1.912230 0.000000
v 1.912230 1.544354 -0.122254
v 2.042369 1.365879 -0.122254
v 1.912230 1.365879 -0.122254
v -0.819527 2.315078 -0.122254
v -0.273176 2.442697 -0.122254
v -0.273176 1.912230 -0.122254
v -0.819527 1.912230 -0.122254
v -0.819527 -0.273176 -0.122254
v -0.273176 -0.273176 -0.122254
v -0.273176 -0.819527 -0.122254
v -0.819527 -0.819527 -0.122254
v -1.912230 -0.273176 -0.122254
v -1.365879 -0.273176 -0.122254
v -1.365879 -0.819527 -0.122254
v -1.912230 -0.819527 -0.122254
v -1.544354 -1.912230 -0.122254
v -1.912230 -1.544354 -0.122254
v -1.912230 -1.365879 -0.122254
v -1.365879 -1.365879 -0.122254
v -1.365879 -1.912230 -0.122254
v -2.042369 -1.365879 -0.122254
v -1.365879 -2.042369 -0.122254
v -2.315078 -0.819527 -0.122254
v -2.442697 -0.273176 -0.122254
v -0.819527 -1.912230 -0.122254
v -0.819527 -1.365879 -0.122254
v -0.273176 -1.365879 -0.122254
v -0.273176 -1.912230 -0.122254
v -0.819527 -2.315078 -0.122254
v -0.273176 -2.442697 -0.122254
v -0.819527 0.819527 -0.122254
v -0.273176 0.819527 -0.122254
v -0.273176 0.273176 -0.122254
v -0.819527 0.273176 -0.122254
v -1.912230 0.819527 -0.122254
v -1.365879 0.819527 -0.122254
v -1.365879 0.273176 -0.122254
v -1.912230 0.273176 -0.122254
v -2.442697 0.273176 -0.122254
v -2.315078 0.819527 -0.122254
v -2.458582 0.000000 -0.122254
v -1.544354 1.912230 -0.122254
v -1.365879 2.042369 -0.122254
v -1.365879 1.912230 -0.122254
v -1.912230 1.365879 -0.122254
v -1.365879 1.365879 -0.122254
v -2.042369 1.365879 -0.122254
v -1.912230 1.544354 -0.122254
v -0.273176 1.365879 -0.122254
v -0.819527 1.365879 -0.122254
v 2.442697 -0.273176 -0.122254
v 2.315078 -0.819527 -0.122254
v 1.912230 -0.819527 -0.122254
v 1.912230 -0.273176 -0.122254
v 0.273176 -0.273176 -0.122254
v 0.819527 -0.273176 -0.122254
v 0.819527 -0.819527 -0.122254
v 0.273176 -0.819527 -0.122254
v 0.273176 -1.912230 -0.122254
v 0.273176 -1.365879 -0.122254
v 0.819527 -1.365879 -0.122254
v 0.819527 -1.912230 -0.122254
v 0.273176 -2.442697 -0.122254
v -0.000000 -2.458582 -0.122254
v 0.819527 -2.315078 -0.122254
v 2.042369 -1.365879 -0.122254
v 1.912230 -1.544354 -0.122254
v 1.912230 -1.365879 -0.122254
v 1.365879 -1.365879 -0.122254
v 1.365879 -1.912230 -0.122254
v 1.365879 -2.042369 -0.122254
v 1.544354 -1.912230 -0.122254
v 1.365879 -0.273176 -0.122254
v 1.365879 -0.819527 -0.122254
v 0.273176 2.442697 -0.122254
v 0.819527 2.315078 -0.122254
v 0.819527 1.912230 -0.122254
v 0.273176 1.912230 -0.122254
v 0.819527 0.819527 -0.122254
v 0.819527 0.273176 -0.122254
v 0.273176 0.273176 -0.122254
v 0.273176 0.819527 -0.122254
v 0.819527 1.365879 -0.122254
v 0.273176 1.365879 -0.122254
v 0.000000 2.458582 -0.122254
v 2.315078 0.819527 -0.122254
v 2.442697 0.273176 -0.122254
v 1.912230 0.273176 -0.122254
v 1.912230 0.819527 -0.122254
v 1.365879 0.819527 -0.122254
v 1.365879 0.273176 -0.122254
v 2.458582 0.000000 -0.122254
v 1.365879 2.042369 -0.122254
v 1.365879 1.912230 -0.122254
v 1.365879 1.365879 -0.122254
v 1.544354 1.912230 -0.122254
vt 1.000000 0.500000
vt 0.000000 0.500000
vt 0.500000 1.000000
vt 0.500000 0.000000
vt 0.003230 0.444444
vt 0.996770 0.444444
vt 0.444444 0.003230
vt 0.444444 0.444444
vt 0.084645 0.222222
vt 0.444444 0.222222
vt 0.222222 0.084645
vt 0.222222 0.222222
vt 0.185926 0.111111
vt 0.222222 0.111111
vt 0.111111 0.185926
vt 0.111111 0.222222
vt 0.444444 0.111111
vt 0.333333 0.029184
vt 0.333333 0.111111
vt 0.333333 0.222222
vt 0.222222 0.444444
vt 0.029184 0.333333
vt 0.222222 0.333333
vt 0.111111 0.333333
vt 0.111111 0.444444
vt 0.444444 0.333333
vt 0.333333 0.333333
vt 0.333333 0.444444
vt 0.666667 0.029184
vt 0.666667 0.444444
vt 0.666667 0.222222
vt 0.666667 0.111111
vt 0.555556 0.003230
vt 0.555556 0.111111
vt 0.555556 0.222222
vt 0.666667 0.333333
vt 0.555556 0.333333
vt 0.555556 0.444444
vt 0.915355 0.222222
vt 0.777778 0.084645
vt 0.777778 0.222222
vt 0.777778 0.111111
vt 0.814074 0.111111
vt 0.888889 0.185926
vt 0.888889 0.222222
vt 0.777778 0.444444
vt 0.777778 0.333333
vt 0.970816 0.333333
vt 0.888889 0.333333
vt 0.888889 0.444444
vt 0.444444 0.996770
vt 0.029184 0.666667
vt 0.444444 0.666667
vt 0.222222 0.666667
vt 0.003230 0.555556
vt 0.222222 0.555556
vt 0.111111 0.555556
vt 0.111111 0.666667
vt 0.444444 0.555556
vt 0.333333 0.555556
vt 0.333333 0.666667
vt 0.222222 0.915355
vt 0.084645 0.777778
vt 0.222222 0.777778
vt 0.111111 0.777778
vt 0.185926 0.888889
vt 0.222222 0.888889
vt 0.111111 0.814074
vt 0.444444 0.777778
vt 0.333333 0.777778
vt 0.444444 0.888889
vt 0.333333 0.888889
vt 0.333333 0.970816
vt 0.970816 0.666667
vt 0.666667 0.666667
vt 0.666667 0.555556
vt 0.555556 0.555556
vt 0.555556 0.666667
vt 0.777778 0.666667
vt 0.777778 0.555556
vt 0.996770 0.555556
vt 0.888889 0.555556
vt 0.888889 0.666667
vt 0.666667 0.970816
vt 0.666667 0.777778
vt 0.555556 0.777778
vt 0.666667 0.888889
vt 0.555556 0.888889
vt 0.555556 0.996770
vt 0.915355 0.777778
vt 0.777778 0.777778
vt 0.888889 0.777778
vt 0.777778 0.915355
vt 0.777778 0.888889
vt 0.814074 0.888889
vt 0.888889 0.814074
vt 0.814074 0.888889
vt 0.777778 0.915355
vt 0.777778 0.888889
vt 0.970816 0.333333
vt 0.996770 0.444444
vt 0.888889 0.444444
vt 0.888889 0.333333
vt 0.444444 0.333333
vt 0.444444 0.444444
vt 0.333333 0.444444
vt 0.333333 0.333333
vt 0.444444 0.111111
vt 0.444444 0.222222
vt 0.333333 0.222222
vt 0.333333 0.111111
vt 0.111111 0.185926
vt 0.185926 0.111111
vt 0.222222 0.111111
vt 0.222222 0.222222
vt 0.111111 0.222222
vt 0.222222 0.084645
vt 0.084645 0.222222
vt 0.333333 0.029184
vt 0.444444 0.003230
vt 0.111111 0.333333
vt 0.222222 0.333333
vt 0.222222 0.444444
vt 0.111111 0.444444
vt 0.029184 0.333333
vt 0.003230 0.444444
vt 0.666667 0.333333
vt 0.666667 0.444444
vt 0.555556 0.444444
vt 0.555556 0.333333
vt 0.666667 0.111111
vt 0.666667 0.222222
vt 0.555556 0.222222
vt 0.555556 0.111111
vt 0.555556 0.003230
vt 0.666667 0.029184
vt 0.500000 0.000000
vt 0.888889 0.185926
vt 0.915355 0.222222
vt 0.888889 0.222222
vt 0.777778 0.111111
vt 0.777778 0.222222
vt 0.777778 0.084645
vt 0.814074 0.111111
vt 0.777778 0.444444
vt 0.777778 0.333333
vt 0.444444 0.996770
vt 0.333333 0.970816
vt 0.333333 0.888889
vt 0.444444 0.888889
vt 0.444444 0.555556
vt 0.444444 0.666667
vt 0.333333 0.666667
vt 0.333333 0.555556
vt 0.111111 0.555556
vt 0.222222 0.555556
vt 0.222222 0.666667
vt 0.111111 0.666667
vt 0.003230 0.555556
vt 0.000000 0.500000
vt 0.029184 0.666667
vt 0.222222 0.915355
vt 0.185926 0.888889
vt 0.222222 0.888889
vt 0.222222 0.777778
vt 0.111111 0.777778
vt 0.084645 0.777778
vt 0.111111 0.814074
vt 0.444444 0.777778
vt 0.333333 0.777778
vt 0.996770 0.555556
vt 0.970816 0.666667
vt 0.888889 0.666667
vt 0.888889 0.555556
vt 0.666667 0.666667
vt 0.555556 0.666667
vt 0.555556 0.555556
vt 0.666667 0.555556
vt 0.777778 0.666667
vt 0.777778 0.555556
vt 1.000000 0.500000
vt 0.666667 0.970816
vt 0.555556 0.996770
vt 0.555556 0.888889
vt 0.666667 0.888889
vt 0.666667 0.777778
vt 0.555556 0.777778
vt 0.500000 1.000000
vt 0.915355 0.777778
vt 0.888889 0.777778
vt 0.777778 0.777778
vt 0.888889 0.814074
vt 0.814074 0.888889
vt 0.777778 0.915355
vt 0.970816 0.333333
vt 0.996770 0.444444
vt 0.111111 0.185926
vt 0.185926 0.111111
vt 0.222222 0.084645
vt 0.084645 0.222222
vt 0.333333 0.029184
vt 0.444444 0.003230
vt 0.029184 0.333333
vt 0.003230 0.444444
vt 0.555556 0.003230
vt 0.666667 0.029184
vt 0.500000 0.000000
vt 0.888889 0.185926
vt 0.915355 0.222222
vt 0.777778 0.084645
vt 0.814074 0.111111
vt 0.444444 0.996770
vt 0.333333 0.970816
vt 0.003230 0.555556
vt 0.000000 0.500000
vt 0.029184 0.666667
vt 0.222222 0.915355
vt 0.185926 0.888889
vt 0.084645 0.777778
vt 0.111111 0.814074
vt 0.996770 0.555556
vt 0.970816 0.666667
vt 1.000000 0.500000
vt 0.666667 0.970816
vt 0.555556 0.996770
vt 0.500000 1.000000
vt 0.915355 0.777778
vt 0.888889 0.814074
f 97/193 98/194 99/94
f 100/195 101/196 102/50 103/49
f 104/26 105/8 106/28 107/27
f 108/17 109/10 110/20 111/19
f 112/197 113/198 114/14 115/12 116/16
f 113/198 117/199 114/14
f 118/200 112/197 116/16
f 119/201 120/202 108/17 111/19
f 117/199 119/201 111/19 114/14
f 110/20 115/12 114/14 111/19
f 121/24 122/23 123/21 124/25
f 116/16 115/12 122/23 121/24
f 125/203 118/200 116/16 121/24
f 126/204 125/203 121/24 124/25
f 110/20 109/10 104/26 107/27
f 115/12 110/20 107/27 122/23
f 106/28 123/21 122/23 107/27
f 127/36 128/30 129/38 130/37
f 131/32 132/31 133/35 134/34
f 135/205 136/206 131/32 134/34
f 120/202 137/207 135/205 134/34 108/17
f 133/35 109/10 108/17 134/34
f 132/31 127/36 130/37 133/35
f 130/37 104/26 109/10 133/35
f 129/38 105/8 104/26 130/37
f 138/208 139/209 140/45
f 141/42 142/41 132/31 131/32
f 136/206 143/210 141/42 131/32
f 143/210 144/211 141/42
f 144/211 138/208 140/45 142/41 141/42
f 145/46 128/30 127/36 146/47
f 127/36 132/31 142/41 146/47
f 139/209 100/195 103/49 140/45
f 103/49 146/47 142/41 140/45
f 102/50 145/46 146/47 103/49
f 147/212 148/213 149/72 150/71
f 151/59 152/53 153/61 154/60
f 155/57 156/56 157/54 158/58
f 124/25 123/21 156/56 155/57
f 159/214 160/215 126/204 124/25 155/57
f 161/216 159/214 155/57 158/58
f 106/28 105/8 151/59 154/60
f 123/21 106/28 154/60 156/56
f 153/61 157/54 156/56 154/60
f 162/217 163/218 164/67
f 158/58 157/54 165/64 166/65
f 167/219 161/216 158/58 166/65
f 163/218 168/220 166/65 165/64 164/67
f 168/220 167/219 166/65
f 153/61 152/53 169/69 170/70
f 165/64 157/54 153/61 170/70
f 170/70 169/69 150/71 149/72
f 164/67 165/64 170/70 149/72
f 148/213 162/217 164/67 149/72
f 171/221 172/222 173/83 174/82
f 175/75 176/78 177/77 178/76
f 129/38 128/30 178/76 177/77
f 151/59 105/8 129/38 177/77
f 176/78 152/53 151/59 177/77
f 179/79 175/75 178/76 180/80
f 178/76 128/30 145/46 180/80
f 181/223 171/221 174/82 102/50 101/196
f 174/82 180/80 145/46 102/50
f 173/83 179/79 180/80 174/82
f 182/224 183/225 184/88 185/87
f 176/78 175/75 186/85 187/86
f 169/69 152/53 176/78 187/86
f 187/86 186/85 185/87 184/88
f 150/71 169/69 187/86 184/88
f 183/225 188/226 147/212 150/71 184/88
f 172/222 189/227 190/92 173/83
f 191/91 186/85 175/75 179/79
f 190/92 191/91 179/79 173/83
f 98/194 182/224 185/87 99/94
f 185/87 186/85 191/91 99/94
f 189/227 192/228 190/92
f 192/228 97/193 99/94 191/91 190/92
f 95/97 94/99 93/98
f 48/100 49/103 50/102 6/101
f 26/104 27/107 28/106 8/105
f 17/108 19/111 20/110 10/109
f 15/112 16/116 12/115 14/114 13/113
f 13/113 14/114 11/117
f 9/118 16/116 15/112
f 18/119 19/111 17/108 7/120
f 11/117 14/114 19/111 18/119
f 20/110 19/111 14/114 12/115
f 24/121 25/124 21/123 23/122
f 16/116 24/121 23/122 12/115
f 22/125 24/121 16/116 9/118
f 5/126 25/124 24/121 22/125
f 20/110 27/107 26/104 10/109
f 12/115 23/122 27/107 20/110
f 28/106 27/107 23/122 21/123
f 36/127 37/130 38/129 30/128
f 32/131 34/134 35/133 31/132
f 33/135 34/134 32/131 29/136
f 7/120 17/108 34/134 33/135 4/137
f 35/133 34/134 17/108 10/109
f 31/132 35/133 37/130 36/127
f 37/130 35/133 10/109 26/104
f 38/129 37/130 26/104 8/105
f 44/138 45/140 39/139
f 42/141 32/131 31/132 41/142
f 29/136 32/131 42/141 40/143
f 40/143 42/141 43/144
f 43/144 42/141 41/142 45/140 44/138
f 46/145 47/146 36/127 30/128
f 36/127 47/146 41/142 31/132
f 39/139 45/140 49/103 48/100
f 49/103 45/140 41/142 47/146
f 50/102 49/103 47/146 46/145
f 51/147 71/150 72/149 73/148
f 59/151 60/154 61/153 53/152
f 57/155 58/158 54/157 56/156
f 25/124 57/155 56/156 21/123
f 55/159 57/155 25/124 5/126 2/160
f 52/161 58/158 57/155 55/159
f 28/106 60/154 59/151 8/105
f 21/123 56/156 60/154 28/106
f 61/153 60/154 56/156 54/157
f 62/162 67/164 66/163
f 58/158 65/166 64/165 54/157
f 63/167 65/166 58/158 52/161
f 66/163 67/164 64/165 65/166 68/168
f 68/168 65/166 63/167
f 61/153 70/170 69/169 53/152
f 64/165 70/170 61/153 54/157
f 70/170 72/149 71/150 69/169
f 67/164 72/149 70/170 64/165
f 73/148 72/149 67/164 62/162
f 81/171 82/174 83/173 74/172
f 75/175 76/178 77/177 78/176
f 38/129 77/177 76/178 30/128
f 59/151 77/177 38/129 8/105
f 78/176 77/177 59/151 53/152
f 79/179 80/180 76/178 75/175
f 76/178 80/180 46/145 30/128
f 1/181 6/101 50/102 82/174 81/171
f 82/174 50/102 46/145 80/180
f 83/173 82/174 80/180 79/179
f 84/182 87/185 88/184 89/183
f 78/176 86/187 85/186 75/175
f 69/169 86/187 78/176 53/152
f 86/187 88/184 87/185 85/186
f 71/150 88/184 86/187 69/169
f 89/183 88/184 71/150 51/147 3/188
f 74/172 83/173 92/190 90/189
f 91/191 79/179 75/175 85/186
f 92/190 83/173 79/179 91/191
f 93/98 94/99 87/185 84/182
f 87/185 94/99 91/191 85/186
f 90/189 92/190 96/192
f 96/192 92/190 91/191 94/99 95/97
f 95/95 93/93 98/194 97/193
f 48/48 6/6 101/196 100/195
f 15/15 13/13 113/198 112/197
f 13/13 11/11 117/199 113/198
f 9/9 15/15 112/197 118/200
f 18/18 7/7 120/202 119/201
f 11/11 18/18 119/201 117/199
f 22/22 9/9 118/200 125/203
f 5/5 22/22 125/203 126/204
f 33/33 29/29 136/206 135/205
f 7/7 4/4 137/207 120/202
f 4/4 33/33 135/205 137/207
f 44/44 39/39 139/209 138/208
f 29/29 40/40 143/210 136/206
f 40/40 43/43 144/211 143/210
f 43/43 44/44 138/208 144/211
f 39/39 48/48 100/195 139/209
f 51/51 73/73 148/213 147/212
f 55/55 2/2 160/215 159/214
f 2/2 5/5 126/204 160/215
f 52/52 55/55 159/214 161/216
f 62/62 66/66 163/218 162/217
f 63/63 52/52 161/216 167/219
f 66/66 68/68 168/220 163/218
f 68/68 63/63 167/219 168/220
f 73/73 62/62 162/217 148/213
f 81/81 74/74 172/222 171/221
f 1/1 81/81 171/221 181/223
f 6/6 1/1 181/223 101/196
f 84/84 89/89 183/225 182/224
f 89/89 3/3 188/226 183/225
f 3/3 51/51 147/212 188/226
f 74/74 90/90 189/227 172/222
f 93/93 84/84 182/224 98/194
f 90/90 96/96 192/228 189/227
f 96/96 95/95 97/193 192/228
